# ssh
# python3/Django1.8/Pycrypto/psycopg2/redis
# grunt
# postgres/pgbouncer/redis
# uwsgi/nginx

apt-get update -y && apt-get upgrade -y
apt-get install -y python3-pip python3-dev libpq-dev postgresql postgresql-contrib pgbouncer python3-psycopg2 nginx redis-server git npm libpcre3 libpcre3-dev
pip3 install Django==1.8.8 pycrypto redis uwsgi

adduser ksan
adduser ksan sudo
adduser ksan redis
adduser ksan postgres
adduser www-data ksan

su postgres
createdb kapindb
createuser -SDR -P --interactive
psql -c "GRANT ALL PRIVILEGES ON DATABASE kapindb TO kapinuser;"

python3 manage.py migrate

# ----- new -----
sudo apt-get install pip3 python3-psycopg2 npm
sudo pip3 install Django==1.8.8 redis pycrypto
sudo ln -s /usr/bin/nodejs /usr/bin/node
sudo npm install -g grunt-cli && sudo rm -rf ~/tmp
cd src-static && npm install grunt grunt-contrib && rm -rf ~/tmp
